{
    "block_instance_mappings": {},
    "block_instances": {},
    "bom_export_settings": {
        "concrete_parts": {},
        "csv_settings": {
            "columns": [
                "QTY",
                "MPN",
                "value",
                "manufacturer",
                "refdes"
            ],
            "order": "asc",
            "sort_column": "refdes"
        },
        "orderable_MPNs": {},
        "output_filename": ""
    },
    "buses": {},
    "components": {
        "19462bed-f02f-4d8f-8f8a-77f3755fe1bd": {
            "connections": {
                "48af78e5-730e-44eb-977a-cf188e4fcb39/6a44037c-65e2-4876-9359-42890048841d": {
                    "net": "7cb1b6a5-923f-4e95-9284-911278e5b16b"
                },
                "48af78e5-730e-44eb-977a-cf188e4fcb39/dda0ec99-5d70-4fbe-a8db-897542e7554e": {
                    "net": "e3b02344-b8cb-431a-b6ea-ecfce60d92ca"
                }
            },
            "custom_pin_names": {},
            "entity": "3ce770af-7be0-4f72-b2af-2c8010911aaf",
            "group": "00000000-0000-0000-0000-000000000000",
            "part": "c3c898a2-f6f4-49f9-8f38-0e8299ce0a39",
            "pin_names": {},
            "refdes": "R4",
            "tag": "6e22c883-e8f2-4ce1-9414-0d4a9451374f",
            "value": ""
        },
        "226d35c4-9f5d-46ca-a1b6-c06c69b80965": {
            "connections": {
                "c8168f99-a1ca-4d98-bbb7-066f8cad2346/3c305ca9-14d3-40b4-a365-8938959c043e": {
                    "net": "7cb1b6a5-923f-4e95-9284-911278e5b16b"
                },
                "c8168f99-a1ca-4d98-bbb7-066f8cad2346/f3a0ce45-6d5e-453b-9649-33baf57cc7b7": {
                    "net": "90d8318f-872b-409c-8f8e-471a217bcdd7"
                }
            },
            "custom_pin_names": {},
            "entity": "f061691a-7954-4797-9529-dba6527d8f4f",
            "group": "00000000-0000-0000-0000-000000000000",
            "part": "2947b7b6-f55f-4395-a9d0-a3817815e7ee",
            "pin_names": {},
            "refdes": "D1",
            "tag": "49f28e18-72e5-4c61-a29d-3d34d66bab3b",
            "value": ""
        },
        "2a368cdf-977d-4951-979d-36d1c2a9f1ae": {
            "connections": {
                "0de5f349-f360-44ed-8f13-d76a2a712b17/2fffaa24-00b6-4f8f-a6c0-f808a499d524": {
                    "net": "d0d30266-f3a6-413d-978b-48f1d098a2d9"
                }
            },
            "custom_pin_names": {},
            "entity": "267c6a2c-f1ef-4659-941a-b59a08de3c02",
            "group": "00000000-0000-0000-0000-000000000000",
            "nopopulate": true,
            "part": "5790d3da-aab7-46c6-8939-caabea11c85e",
            "pin_names": {},
            "refdes": "TP2",
            "tag": "84597312-c740-471f-a1d9-cc09278cf943",
            "value": ""
        },
        "3445aed4-0183-4c81-b169-1790c8b8db7d": {
            "connections": {
                "c8b7918e-fbf3-4d3d-9629-7888c2542a58/064529f5-6793-469d-8677-c79fcd871f28": {
                    "net": "fb8ca18a-d3f4-484a-aea8-1aff959d2337"
                },
                "c8b7918e-fbf3-4d3d-9629-7888c2542a58/2717d9e3-9712-4526-8024-6efc1e8e0bc0": {
                    "net": "e3b02344-b8cb-431a-b6ea-ecfce60d92ca"
                },
                "c8b7918e-fbf3-4d3d-9629-7888c2542a58/63d5899e-90d1-447c-9eaa-1eaf276e807c": {
                    "net": null
                },
                "c8b7918e-fbf3-4d3d-9629-7888c2542a58/7a4448f5-517d-4ec6-97f7-aefcdf13e02d": {
                    "net": "413986ff-fa57-491a-9000-fb4544cb4ec9"
                },
                "c8b7918e-fbf3-4d3d-9629-7888c2542a58/8adefde6-f9b7-4fed-91ee-55089829bb93": {
                    "net": null
                },
                "c8b7918e-fbf3-4d3d-9629-7888c2542a58/aee26174-f9f5-43a8-92e1-3ddf20d371b0": {
                    "net": null
                },
                "c8b7918e-fbf3-4d3d-9629-7888c2542a58/b1c2ee2f-b8be-44c0-9561-79a5d9d6bc0b": {
                    "net": "ef6b0346-6cf5-4a3c-b8b6-5f2c7df7c700"
                },
                "c8b7918e-fbf3-4d3d-9629-7888c2542a58/d9e315ef-20c5-40e4-98ab-e604063682b5": {
                    "net": "39a909c7-ff2d-4e0a-a333-03f3545c753a"
                },
                "c8b7918e-fbf3-4d3d-9629-7888c2542a58/f075d86c-b10a-412a-b49d-714cc3efcce7": {
                    "net": "95be18a0-dee3-496e-83c0-36deb347d721"
                }
            },
            "custom_pin_names": {},
            "entity": "b3c7f10f-2160-4b68-a38b-10bf0263c097",
            "group": "00000000-0000-0000-0000-000000000000",
            "part": "69347855-3139-4fcb-a1ad-3b5649fe32d4",
            "pin_names": {},
            "refdes": "TC",
            "tag": "933eec26-1038-40a0-8b9e-bc1c25a96a91",
            "value": ""
        },
        "3d5fe94b-f0d8-4817-b302-79512dc97d67": {
            "connections": {
                "0de5f349-f360-44ed-8f13-d76a2a712b17/2fffaa24-00b6-4f8f-a6c0-f808a499d524": {
                    "net": "a1246daa-8b13-4b31-b0fa-b9d1459d0a5b"
                }
            },
            "custom_pin_names": {},
            "entity": "267c6a2c-f1ef-4659-941a-b59a08de3c02",
            "group": "00000000-0000-0000-0000-000000000000",
            "nopopulate": true,
            "part": "5790d3da-aab7-46c6-8939-caabea11c85e",
            "pin_names": {},
            "refdes": "TP6",
            "tag": "62941ae6-79c7-4515-a284-adf487f24e8a",
            "value": ""
        },
        "3edb44e8-505b-4ee8-80c0-cd23a5e275a4": {
            "connections": {
                "48af78e5-730e-44eb-977a-cf188e4fcb39/6a44037c-65e2-4876-9359-42890048841d": {
                    "net": "29b4af64-863a-48e2-bdae-aabf87103b47"
                },
                "48af78e5-730e-44eb-977a-cf188e4fcb39/dda0ec99-5d70-4fbe-a8db-897542e7554e": {
                    "net": "7a4c2a10-ac15-42c4-b12a-0f1a2258859d"
                }
            },
            "custom_pin_names": {},
            "entity": "3ce770af-7be0-4f72-b2af-2c8010911aaf",
            "group": "00000000-0000-0000-0000-000000000000",
            "part": "c3c898a2-f6f4-49f9-8f38-0e8299ce0a39",
            "pin_names": {},
            "refdes": "R5",
            "tag": "6e22c883-e8f2-4ce1-9414-0d4a9451374f",
            "value": ""
        },
        "40af1944-a884-49cb-a68f-8ea43070affa": {
            "connections": {
                "9bfcf213-2a7e-444e-8312-ce57209fc9ec/29995253-b4b1-4c7c-a049-b6db2713ca7c": {
                    "net": "e3b02344-b8cb-431a-b6ea-ecfce60d92ca"
                },
                "9bfcf213-2a7e-444e-8312-ce57209fc9ec/852f1fe6-06dc-4661-8a14-61a9a6ebb26a": {
                    "net": "7a4c2a10-ac15-42c4-b12a-0f1a2258859d"
                }
            },
            "custom_pin_names": {},
            "entity": "ca83a84f-6183-4088-84b6-5d79b2a119d4",
            "group": "00000000-0000-0000-0000-000000000000",
            "part": "d2660839-d26a-4b7d-8644-adf651a9826c",
            "pin_names": {},
            "refdes": "C2",
            "tag": "be6e1e62-9e5e-496d-882d-633c0e147d6c",
            "value": ""
        },
        "4c853e6b-ce45-48bd-90d9-fc4c2e9254b2": {
            "connections": {
                "48af78e5-730e-44eb-977a-cf188e4fcb39/6a44037c-65e2-4876-9359-42890048841d": {
                    "net": "207bdb2c-09cc-4359-903c-6022ec7aeb9f"
                },
                "48af78e5-730e-44eb-977a-cf188e4fcb39/dda0ec99-5d70-4fbe-a8db-897542e7554e": {
                    "net": "4f27dbd4-88ba-4f95-9516-08d4df58224c"
                }
            },
            "custom_pin_names": {},
            "entity": "3ce770af-7be0-4f72-b2af-2c8010911aaf",
            "group": "00000000-0000-0000-0000-000000000000",
            "part": "eac168ac-33f6-469e-939e-c94b1aea6fdc",
            "pin_names": {},
            "refdes": "R3",
            "tag": "4b9086e1-cbd1-4b24-96fe-d0d6c49652e2",
            "value": ""
        },
        "53b376a7-686a-423a-9e14-19c1e64662ad": {
            "connections": {
                "9bfcf213-2a7e-444e-8312-ce57209fc9ec/29995253-b4b1-4c7c-a049-b6db2713ca7c": {
                    "net": "e3b02344-b8cb-431a-b6ea-ecfce60d92ca"
                },
                "9bfcf213-2a7e-444e-8312-ce57209fc9ec/852f1fe6-06dc-4661-8a14-61a9a6ebb26a": {
                    "net": "413986ff-fa57-491a-9000-fb4544cb4ec9"
                }
            },
            "custom_pin_names": {},
            "entity": "ca83a84f-6183-4088-84b6-5d79b2a119d4",
            "group": "00000000-0000-0000-0000-000000000000",
            "part": "14a5577a-4e31-43f7-9cf7-621fb61c78e7",
            "pin_names": {},
            "refdes": "C7",
            "tag": "5e7ec020-0ea6-443c-b1a2-7579ab3bdfa6",
            "value": ""
        },
        "53f7b8de-166f-4083-a3da-411ea3407b82": {
            "connections": {
                "9bfcf213-2a7e-444e-8312-ce57209fc9ec/29995253-b4b1-4c7c-a049-b6db2713ca7c": {
                    "net": "e3b02344-b8cb-431a-b6ea-ecfce60d92ca"
                },
                "9bfcf213-2a7e-444e-8312-ce57209fc9ec/852f1fe6-06dc-4661-8a14-61a9a6ebb26a": {
                    "net": "7a4c2a10-ac15-42c4-b12a-0f1a2258859d"
                }
            },
            "custom_pin_names": {},
            "entity": "ca83a84f-6183-4088-84b6-5d79b2a119d4",
            "group": "00000000-0000-0000-0000-000000000000",
            "part": "d2660839-d26a-4b7d-8644-adf651a9826c",
            "pin_names": {},
            "refdes": "C3",
            "tag": "bd475dd7-c9b7-4ada-8bae-7fabe518b85e",
            "value": ""
        },
        "55e51889-cdef-4453-b8a2-80ba6fd4459f": {
            "connections": {
                "9bfcf213-2a7e-444e-8312-ce57209fc9ec/29995253-b4b1-4c7c-a049-b6db2713ca7c": {
                    "net": "4f27dbd4-88ba-4f95-9516-08d4df58224c"
                },
                "9bfcf213-2a7e-444e-8312-ce57209fc9ec/852f1fe6-06dc-4661-8a14-61a9a6ebb26a": {
                    "net": "e3b02344-b8cb-431a-b6ea-ecfce60d92ca"
                }
            },
            "custom_pin_names": {},
            "entity": "ca83a84f-6183-4088-84b6-5d79b2a119d4",
            "group": "00000000-0000-0000-0000-000000000000",
            "part": "b68fda16-6b58-49cc-86e2-1bf81726877f",
            "pin_names": {},
            "refdes": "C9",
            "tag": "7306a73f-7cbb-482e-9a0a-e304f60a16b0",
            "value": ""
        },
        "56011ace-987a-4590-bcbc-a6abc69c7ab8": {
            "connections": {
                "48af78e5-730e-44eb-977a-cf188e4fcb39/6a44037c-65e2-4876-9359-42890048841d": {
                    "net": "57fcbb27-ce76-49f9-a230-71db6992d842"
                },
                "48af78e5-730e-44eb-977a-cf188e4fcb39/dda0ec99-5d70-4fbe-a8db-897542e7554e": {
                    "net": "e3b02344-b8cb-431a-b6ea-ecfce60d92ca"
                }
            },
            "custom_pin_names": {},
            "entity": "3ce770af-7be0-4f72-b2af-2c8010911aaf",
            "group": "00000000-0000-0000-0000-000000000000",
            "part": "c3c898a2-f6f4-49f9-8f38-0e8299ce0a39",
            "pin_names": {},
            "refdes": "R6",
            "tag": "6e22c883-e8f2-4ce1-9414-0d4a9451374f",
            "value": ""
        },
        "5db820bc-a626-4624-b4ae-5569f5fec176": {
            "connections": {
                "9bfcf213-2a7e-444e-8312-ce57209fc9ec/29995253-b4b1-4c7c-a049-b6db2713ca7c": {
                    "net": "e3b02344-b8cb-431a-b6ea-ecfce60d92ca"
                },
                "9bfcf213-2a7e-444e-8312-ce57209fc9ec/852f1fe6-06dc-4661-8a14-61a9a6ebb26a": {
                    "net": "7a4c2a10-ac15-42c4-b12a-0f1a2258859d"
                }
            },
            "custom_pin_names": {},
            "entity": "ca83a84f-6183-4088-84b6-5d79b2a119d4",
            "group": "00000000-0000-0000-0000-000000000000",
            "part": "106b54a5-c08e-425e-90ad-4f4bc7bc3d30",
            "pin_names": {},
            "refdes": "C1",
            "tag": "83ed4073-f8b0-4464-bac6-4a10fa48bc17",
            "value": ""
        },
        "63fa91e7-896c-4f49-82d5-fb538577a5bb": {
            "connections": {
                "ac6d19cf-b1bd-4c94-b526-095cbac224f4/007ad498-d102-4d1d-8618-ba48d992e4ff": {
                    "net": "363d09fc-c9e7-49dc-92c5-33b1320cc97f"
                },
                "ac6d19cf-b1bd-4c94-b526-095cbac224f4/0fe7061f-866f-4df8-85b4-dc8304320aaf": {
                    "net": "36d9579f-dbb0-4373-86d9-0c5333bbe70b"
                },
                "ac6d19cf-b1bd-4c94-b526-095cbac224f4/1def3927-06c7-47d2-b456-e39c56e2d229": {
                    "net": "b80d7fcf-8099-421f-bd20-15d562895f06"
                },
                "ac6d19cf-b1bd-4c94-b526-095cbac224f4/26d5fed9-2a32-450f-8359-eb5482320776": {
                    "net": "d0d30266-f3a6-413d-978b-48f1d098a2d9"
                },
                "ac6d19cf-b1bd-4c94-b526-095cbac224f4/2a8120b3-9d4f-4526-a8fd-fa9481c0cdd0": {
                    "net": "6fe40035-0149-4847-ac5c-00b7b2b4fb1f"
                },
                "ac6d19cf-b1bd-4c94-b526-095cbac224f4/34054ed0-d505-4810-88b4-8ba880999334": {
                    "net": "29b4af64-863a-48e2-bdae-aabf87103b47"
                },
                "ac6d19cf-b1bd-4c94-b526-095cbac224f4/37a0a46d-91c9-46b7-8f1b-81344cccf131": {
                    "net": "31bbe64c-3d11-420b-8de7-3b8bbe77b7db"
                },
                "ac6d19cf-b1bd-4c94-b526-095cbac224f4/37db92bb-5e2d-441c-a1c9-c5f5b9240360": {
                    "net": "90d8318f-872b-409c-8f8e-471a217bcdd7"
                },
                "ac6d19cf-b1bd-4c94-b526-095cbac224f4/3b6c0a61-178b-4ba2-a6f7-284e461b6508": {
                    "net": null
                },
                "ac6d19cf-b1bd-4c94-b526-095cbac224f4/3e633809-42d9-411f-a0c8-1c99e83e69ab": {
                    "net": "c3e9c1c3-f800-4882-95b5-dd4721a9b248"
                },
                "ac6d19cf-b1bd-4c94-b526-095cbac224f4/4cc08703-d677-4859-b9a9-990b82cc9600": {
                    "net": "8b58a57d-3fab-4e23-8d61-34ece09fce4f"
                },
                "ac6d19cf-b1bd-4c94-b526-095cbac224f4/4d6225fb-49fc-41e7-a8f0-a8aeaa04b0da": {
                    "net": "92451f24-7c98-4050-8618-5e9f67972cc8"
                },
                "ac6d19cf-b1bd-4c94-b526-095cbac224f4/4f48ea3f-0f61-44c9-b678-1c48c90e1f15": {
                    "net": null
                },
                "ac6d19cf-b1bd-4c94-b526-095cbac224f4/4f9a1f17-4e53-4336-b1e4-8b40b7d364d1": {
                    "net": "8f745888-e2b9-4a67-ace1-5bcb310aebe2"
                },
                "ac6d19cf-b1bd-4c94-b526-095cbac224f4/5143bfaf-7475-47fc-b001-cf3490ebf997": {
                    "net": "7a4c2a10-ac15-42c4-b12a-0f1a2258859d"
                },
                "ac6d19cf-b1bd-4c94-b526-095cbac224f4/5649ce61-0926-43ac-b3af-44f4ee2d2caa": {
                    "net": "e3b02344-b8cb-431a-b6ea-ecfce60d92ca"
                },
                "ac6d19cf-b1bd-4c94-b526-095cbac224f4/58a99c57-18fb-418c-ad68-d98dd58ca88b": {
                    "net": null
                },
                "ac6d19cf-b1bd-4c94-b526-095cbac224f4/5a0ba0f4-2470-4031-9ceb-81b614ef4338": {
                    "net": "873c1d1b-3fef-4a7e-936f-2ad89846d4be"
                },
                "ac6d19cf-b1bd-4c94-b526-095cbac224f4/5b476dba-6b7b-4e55-a301-2f04d85ea46a": {
                    "net": "6e211fde-6f5f-4e1c-bde4-e433823fc827"
                },
                "ac6d19cf-b1bd-4c94-b526-095cbac224f4/68f5076c-4b4d-4baf-abf7-f20cd0b3181f": {
                    "net": "c8af41b2-6e15-4d9b-8fae-62e7553477a0"
                },
                "ac6d19cf-b1bd-4c94-b526-095cbac224f4/71cd3b3a-72fa-490d-94a8-567441f28289": {
                    "net": "0e60599d-f7b0-4973-90da-f744e27249ec"
                },
                "ac6d19cf-b1bd-4c94-b526-095cbac224f4/7803d9fc-337f-47a1-9616-4aedac93d3c6": {
                    "net": "7fffef8b-8b2b-4ff0-9791-9c0e894d043e"
                },
                "ac6d19cf-b1bd-4c94-b526-095cbac224f4/7d59c169-7681-4194-8f32-dcca6e5652c1": {
                    "net": "7a4c2a10-ac15-42c4-b12a-0f1a2258859d"
                },
                "ac6d19cf-b1bd-4c94-b526-095cbac224f4/8a8dccb5-1bf9-497b-a5a1-752ddbccfa1c": {
                    "net": "2b83249d-91cc-4f6d-a566-4aab77b80ae6"
                },
                "ac6d19cf-b1bd-4c94-b526-095cbac224f4/8bcd2c35-b625-437a-8569-079078e4fc55": {
                    "net": "47f1f834-8c5a-400f-95c5-16161d5b90fa"
                },
                "ac6d19cf-b1bd-4c94-b526-095cbac224f4/9a8ebe0e-53dc-4aba-98af-b7d40725a8df": {
                    "net": "aba52786-4d3b-4547-b240-1c590376084e"
                },
                "ac6d19cf-b1bd-4c94-b526-095cbac224f4/aa7030ff-d17f-4381-b847-6df575efdf7d": {
                    "net": "43b6c40f-2e51-4895-90df-a411a055ac82"
                },
                "ac6d19cf-b1bd-4c94-b526-095cbac224f4/b26c9ad8-e5ac-45aa-8827-aa51caa1af7a": {
                    "net": "d5bf7b1e-9114-46af-a8b7-977243e0e7a3"
                },
                "ac6d19cf-b1bd-4c94-b526-095cbac224f4/b9b1789f-2b0a-482b-a2e9-855bad01d163": {
                    "net": "207bdb2c-09cc-4359-903c-6022ec7aeb9f"
                },
                "ac6d19cf-b1bd-4c94-b526-095cbac224f4/ba1835bf-39ad-4b9c-8500-e0772832d636": {
                    "net": "2835b632-5452-4d79-87f1-1e4214dfb0f1"
                },
                "ac6d19cf-b1bd-4c94-b526-095cbac224f4/c0f1d637-8093-4a1c-9661-8b48ec0113b4": {
                    "net": "d4dedf65-fd24-42b7-a621-61ad5b2c8bbc"
                },
                "ac6d19cf-b1bd-4c94-b526-095cbac224f4/c2ed802d-ca9a-4f1e-82a8-f4840ca58745": {
                    "net": "a1246daa-8b13-4b31-b0fa-b9d1459d0a5b"
                },
                "ac6d19cf-b1bd-4c94-b526-095cbac224f4/c41287fa-6305-448b-8827-a135e3379911": {
                    "net": "e3b02344-b8cb-431a-b6ea-ecfce60d92ca"
                },
                "ac6d19cf-b1bd-4c94-b526-095cbac224f4/c7231ab2-875a-4e42-b758-a446f03f0984": {
                    "net": "a767498c-fc0d-46bf-892a-acbe6faf31bd"
                },
                "ac6d19cf-b1bd-4c94-b526-095cbac224f4/c760290b-a87b-46a3-bf98-b2ad7cc230eb": {
                    "net": null
                },
                "ac6d19cf-b1bd-4c94-b526-095cbac224f4/d383cded-ccf0-4f23-a2fa-ebf1f794494f": {
                    "net": "61050356-9e1f-48a3-a8fb-a80991b38631"
                },
                "ac6d19cf-b1bd-4c94-b526-095cbac224f4/d40d3246-5128-4ad2-99ce-eaecda0a01d5": {
                    "net": "57fcbb27-ce76-49f9-a230-71db6992d842"
                },
                "ac6d19cf-b1bd-4c94-b526-095cbac224f4/db6fee3f-2db4-4cae-a750-02acacb8e77d": {
                    "net": "e4468119-9293-4a66-a798-8308fc66c234"
                },
                "ac6d19cf-b1bd-4c94-b526-095cbac224f4/dfd29914-7d6f-4148-b7b8-30d3e4d53b24": {
                    "net": null
                },
                "ac6d19cf-b1bd-4c94-b526-095cbac224f4/e58e0ee6-8821-46ec-900b-82d3b814ee96": {
                    "net": "06a85339-9e68-41e3-833c-99d128d1ff64"
                },
                "ac6d19cf-b1bd-4c94-b526-095cbac224f4/ea7ab7d2-c10b-4ec0-88ab-c40de46b1596": {
                    "net": "9462cab2-bd58-4ccd-94b9-db90c134884d"
                },
                "ac6d19cf-b1bd-4c94-b526-095cbac224f4/ef2e7684-9bab-4c52-917d-08bff2f37938": {
                    "net": null
                },
                "ac6d19cf-b1bd-4c94-b526-095cbac224f4/ef33d427-62ae-4421-bfbc-e5d7b2dfb608": {
                    "net": "878c7012-8970-4614-a29b-fa631fe600eb"
                },
                "ac6d19cf-b1bd-4c94-b526-095cbac224f4/ff7004c5-79d1-44b1-a755-9a4c90400ba5": {
                    "net": "7a4c2a10-ac15-42c4-b12a-0f1a2258859d"
                }
            },
            "custom_pin_names": {},
            "entity": "c9dc9495-66d6-45b2-930c-e7db0a0e6c01",
            "group": "00000000-0000-0000-0000-000000000000",
            "part": "da917d6c-3744-4768-954d-dcd7ce4e90e1",
            "pin_names": {},
            "refdes": "MCU",
            "tag": "6501b979-bdae-4ebf-9dc5-42eed810a5b6",
            "value": ""
        },
        "6c1ba091-1b1e-4ae9-8c12-c7ce3bec44ef": {
            "connections": {
                "eb7f68b1-6fba-4a35-a470-2cecb23fe087/588536f1-9e96-4500-bcbb-4ba48082b643": {
                    "net": "e3b02344-b8cb-431a-b6ea-ecfce60d92ca"
                },
                "eb7f68b1-6fba-4a35-a470-2cecb23fe087/b3cef4f5-fe6c-45b5-b063-1618f997168f": {
                    "net": "7a4c2a10-ac15-42c4-b12a-0f1a2258859d"
                }
            },
            "custom_pin_names": {},
            "entity": "29f544a1-a789-4fe6-a1ef-29da5ba3d371",
            "group": "00000000-0000-0000-0000-000000000000",
            "nopopulate": true,
            "part": "91f59ac2-9e8f-40eb-a5bb-9fa75c9ff89c",
            "pin_names": {},
            "refdes": "J2",
            "tag": "16275200-237e-4347-b64d-1e7d7262c3ef",
            "value": ""
        },
        "75688f68-9219-40e6-b46d-c88a2a9c5120": {
            "connections": {
                "2a1bd72d-6d14-48c7-94d4-91d36e7a56c6/29995253-b4b1-4c7c-a049-b6db2713ca7c": {
                    "net": "c8af41b2-6e15-4d9b-8fae-62e7553477a0"
                },
                "2a1bd72d-6d14-48c7-94d4-91d36e7a56c6/852f1fe6-06dc-4661-8a14-61a9a6ebb26a": {
                    "net": "4f27dbd4-88ba-4f95-9516-08d4df58224c"
                },
                "2a1bd72d-6d14-48c7-94d4-91d36e7a56c6/d118db9b-0850-4b8a-a5a0-5f50299fd232": {
                    "net": "e3b02344-b8cb-431a-b6ea-ecfce60d92ca"
                }
            },
            "custom_pin_names": {},
            "entity": "03e9b2b2-36ee-4e93-a665-c9327c97cc89",
            "group": "00000000-0000-0000-0000-000000000000",
            "part": "674a4514-32eb-43a8-b2ac-e03d23d835f7",
            "pin_names": {},
            "refdes": "XTAL",
            "tag": "94b18127-69db-4a2c-900d-a5599c95d1d3",
            "value": ""
        },
        "7f208ec7-b914-4e99-9de4-195f5ddc8e24": {
            "connections": {
                "0de5f349-f360-44ed-8f13-d76a2a712b17/2fffaa24-00b6-4f8f-a6c0-f808a499d524": {
                    "net": "8f745888-e2b9-4a67-ace1-5bcb310aebe2"
                }
            },
            "custom_pin_names": {},
            "entity": "267c6a2c-f1ef-4659-941a-b59a08de3c02",
            "group": "00000000-0000-0000-0000-000000000000",
            "nopopulate": true,
            "part": "5790d3da-aab7-46c6-8939-caabea11c85e",
            "pin_names": {},
            "refdes": "TP8",
            "tag": "98284582-7a5e-41e5-855a-16ee57459f88",
            "value": ""
        },
        "87751478-6294-4e3e-815a-15940f09a699": {
            "connections": {
                "9bfcf213-2a7e-444e-8312-ce57209fc9ec/29995253-b4b1-4c7c-a049-b6db2713ca7c": {
                    "net": "c8af41b2-6e15-4d9b-8fae-62e7553477a0"
                },
                "9bfcf213-2a7e-444e-8312-ce57209fc9ec/852f1fe6-06dc-4661-8a14-61a9a6ebb26a": {
                    "net": "e3b02344-b8cb-431a-b6ea-ecfce60d92ca"
                }
            },
            "custom_pin_names": {},
            "entity": "ca83a84f-6183-4088-84b6-5d79b2a119d4",
            "group": "00000000-0000-0000-0000-000000000000",
            "part": "b68fda16-6b58-49cc-86e2-1bf81726877f",
            "pin_names": {},
            "refdes": "C6",
            "tag": "d7af4f01-79bc-4925-b231-309b6a868af9",
            "value": ""
        },
        "88344acc-c521-4eda-8414-6e7aedfaaaf7": {
            "connections": {
                "0de5f349-f360-44ed-8f13-d76a2a712b17/2fffaa24-00b6-4f8f-a6c0-f808a499d524": {
                    "net": "2835b632-5452-4d79-87f1-1e4214dfb0f1"
                }
            },
            "custom_pin_names": {},
            "entity": "267c6a2c-f1ef-4659-941a-b59a08de3c02",
            "group": "00000000-0000-0000-0000-000000000000",
            "nopopulate": true,
            "part": "5790d3da-aab7-46c6-8939-caabea11c85e",
            "pin_names": {},
            "refdes": "TP1",
            "tag": "d1762042-ab07-46a2-afb6-9a4d78a0f21e",
            "value": ""
        },
        "adcd10dc-1eb6-45d3-ac99-2e21dad859b2": {
            "connections": {
                "9bfcf213-2a7e-444e-8312-ce57209fc9ec/29995253-b4b1-4c7c-a049-b6db2713ca7c": {
                    "net": "e3b02344-b8cb-431a-b6ea-ecfce60d92ca"
                },
                "9bfcf213-2a7e-444e-8312-ce57209fc9ec/852f1fe6-06dc-4661-8a14-61a9a6ebb26a": {
                    "net": "7a4c2a10-ac15-42c4-b12a-0f1a2258859d"
                }
            },
            "custom_pin_names": {},
            "entity": "ca83a84f-6183-4088-84b6-5d79b2a119d4",
            "group": "00000000-0000-0000-0000-000000000000",
            "part": "d2660839-d26a-4b7d-8644-adf651a9826c",
            "pin_names": {},
            "refdes": "C5",
            "tag": "8897772a-ed90-4733-a3b9-65d0727f5be7",
            "value": ""
        },
        "b91144da-4129-4542-bb50-3da5d2c5f69f": {
            "connections": {
                "48af78e5-730e-44eb-977a-cf188e4fcb39/6a44037c-65e2-4876-9359-42890048841d": {
                    "net": "e3b02344-b8cb-431a-b6ea-ecfce60d92ca"
                },
                "48af78e5-730e-44eb-977a-cf188e4fcb39/dda0ec99-5d70-4fbe-a8db-897542e7554e": {
                    "net": "39a909c7-ff2d-4e0a-a333-03f3545c753a"
                }
            },
            "custom_pin_names": {},
            "entity": "3ce770af-7be0-4f72-b2af-2c8010911aaf",
            "group": "00000000-0000-0000-0000-000000000000",
            "part": "12c5b98e-d055-441d-ad02-760adde0cc1a",
            "pin_names": {},
            "refdes": "R2",
            "tag": "32ad1595-0f64-435d-a452-e1c109e984f5",
            "value": ""
        },
        "b9c00978-a01f-437b-9478-b858a494d2a9": {
            "connections": {
                "8b4c20d8-37fd-40a5-8239-db8803c0baa0/20f0495c-5e6e-4975-b440-1399ca09d3c3": {
                    "net": "e3b02344-b8cb-431a-b6ea-ecfce60d92ca"
                },
                "8b4c20d8-37fd-40a5-8239-db8803c0baa0/304699c2-7433-4b03-ad2c-c8df631dd06f": {
                    "net": "413986ff-fa57-491a-9000-fb4544cb4ec9"
                },
                "8b4c20d8-37fd-40a5-8239-db8803c0baa0/559d5e91-2169-486b-9ece-8db9867957dd": {
                    "net": "7a4c2a10-ac15-42c4-b12a-0f1a2258859d"
                }
            },
            "custom_pin_names": {},
            "entity": "1d0055e8-b654-4bb9-b3e2-5ad87079ecca",
            "group": "00000000-0000-0000-0000-000000000000",
            "part": "9f920c96-b831-4eed-a432-fd4295252a05",
            "pin_names": {},
            "refdes": "LDO",
            "tag": "1799daee-9c46-4157-b35f-0df2fd79669f",
            "value": ""
        },
        "bdb1671d-c3fd-47a6-bb75-30db39a29971": {
            "connections": {
                "0de5f349-f360-44ed-8f13-d76a2a712b17/2fffaa24-00b6-4f8f-a6c0-f808a499d524": {
                    "net": "a767498c-fc0d-46bf-892a-acbe6faf31bd"
                }
            },
            "custom_pin_names": {},
            "entity": "267c6a2c-f1ef-4659-941a-b59a08de3c02",
            "group": "00000000-0000-0000-0000-000000000000",
            "nopopulate": true,
            "part": "5790d3da-aab7-46c6-8939-caabea11c85e",
            "pin_names": {},
            "refdes": "TP7",
            "tag": "b27e089f-571b-45d6-bb71-0461d42c6ed8",
            "value": ""
        },
        "c30b556f-e186-4eb6-bc5d-02796c01289a": {
            "connections": {
                "0de5f349-f360-44ed-8f13-d76a2a712b17/2fffaa24-00b6-4f8f-a6c0-f808a499d524": {
                    "net": "31bbe64c-3d11-420b-8de7-3b8bbe77b7db"
                }
            },
            "custom_pin_names": {},
            "entity": "267c6a2c-f1ef-4659-941a-b59a08de3c02",
            "group": "00000000-0000-0000-0000-000000000000",
            "nopopulate": true,
            "part": "5790d3da-aab7-46c6-8939-caabea11c85e",
            "pin_names": {},
            "refdes": "TP3",
            "tag": "e7ba13d4-0578-48ca-9c70-97ea2be54a9d",
            "value": ""
        },
        "c75d2588-f3e7-43fc-a6f4-fee8a8803b01": {
            "connections": {
                "9739436a-28aa-4c52-ab94-a38b0a5a0856/2501f7a9-31c1-4ebc-a65f-aee78da5eecc": {
                    "net": "e3b02344-b8cb-431a-b6ea-ecfce60d92ca"
                },
                "9739436a-28aa-4c52-ab94-a38b0a5a0856/53a5cf68-3e67-49aa-803a-1295c3439ba2": {
                    "net": "29b4af64-863a-48e2-bdae-aabf87103b47"
                },
                "9739436a-28aa-4c52-ab94-a38b0a5a0856/67953b45-b732-4407-adcd-81a6700e39da": {
                    "net": "fb8ca18a-d3f4-484a-aea8-1aff959d2337"
                },
                "9739436a-28aa-4c52-ab94-a38b0a5a0856/926eeb1c-eb9e-4109-a439-6cc8e2e7bf2b": {
                    "net": "ef6b0346-6cf5-4a3c-b8b6-5f2c7df7c700"
                },
                "9739436a-28aa-4c52-ab94-a38b0a5a0856/c309fb90-62dd-450b-8bf4-d3236d3c1bad": {
                    "net": "873c1d1b-3fef-4a7e-936f-2ad89846d4be"
                },
                "9739436a-28aa-4c52-ab94-a38b0a5a0856/dd24a623-f62e-40c9-98fd-cb763dba5559": {
                    "net": "413986ff-fa57-491a-9000-fb4544cb4ec9"
                }
            },
            "custom_pin_names": {},
            "entity": "140d010f-53f8-484d-ac91-04b26ae96f19",
            "group": "00000000-0000-0000-0000-000000000000",
            "part": "f123c327-dfc9-4b4b-9a25-387bcac90183",
            "pin_names": {},
            "refdes": "UPROT",
            "tag": "03033be7-1d32-407c-acc9-d260a56e6602",
            "value": ""
        },
        "c9819918-a35d-4e94-931f-ef2f8c4800ec": {
            "connections": {
                "eb7f68b1-6fba-4a35-a470-2cecb23fe087/588536f1-9e96-4500-bcbb-4ba48082b643": {
                    "net": "d4dedf65-fd24-42b7-a621-61ad5b2c8bbc"
                },
                "eb7f68b1-6fba-4a35-a470-2cecb23fe087/b3cef4f5-fe6c-45b5-b063-1618f997168f": {
                    "net": "6fe40035-0149-4847-ac5c-00b7b2b4fb1f"
                }
            },
            "custom_pin_names": {},
            "entity": "29f544a1-a789-4fe6-a1ef-29da5ba3d371",
            "group": "00000000-0000-0000-0000-000000000000",
            "nopopulate": true,
            "part": "91f59ac2-9e8f-40eb-a5bb-9fa75c9ff89c",
            "pin_names": {},
            "refdes": "J4",
            "tag": "2dda52e3-53ee-4adf-8e1f-ca4225e9fe5c",
            "value": ""
        },
        "cead8a88-f18c-4edc-b22b-af52c583a2be": {
            "connections": {
                "9bfcf213-2a7e-444e-8312-ce57209fc9ec/29995253-b4b1-4c7c-a049-b6db2713ca7c": {
                    "net": "e3b02344-b8cb-431a-b6ea-ecfce60d92ca"
                },
                "9bfcf213-2a7e-444e-8312-ce57209fc9ec/852f1fe6-06dc-4661-8a14-61a9a6ebb26a": {
                    "net": "7a4c2a10-ac15-42c4-b12a-0f1a2258859d"
                }
            },
            "custom_pin_names": {},
            "entity": "ca83a84f-6183-4088-84b6-5d79b2a119d4",
            "group": "00000000-0000-0000-0000-000000000000",
            "part": "d2660839-d26a-4b7d-8644-adf651a9826c",
            "pin_names": {},
            "refdes": "C4",
            "tag": "8897772a-ed90-4733-a3b9-65d0727f5be7",
            "value": ""
        },
        "d48f9b61-7896-43c4-960c-491a21b8f659": {
            "connections": {
                "eb7f68b1-6fba-4a35-a470-2cecb23fe087/588536f1-9e96-4500-bcbb-4ba48082b643": {
                    "net": "e3b02344-b8cb-431a-b6ea-ecfce60d92ca"
                },
                "eb7f68b1-6fba-4a35-a470-2cecb23fe087/b3cef4f5-fe6c-45b5-b063-1618f997168f": {
                    "net": "413986ff-fa57-491a-9000-fb4544cb4ec9"
                }
            },
            "custom_pin_names": {},
            "entity": "29f544a1-a789-4fe6-a1ef-29da5ba3d371",
            "group": "00000000-0000-0000-0000-000000000000",
            "nopopulate": true,
            "part": "91f59ac2-9e8f-40eb-a5bb-9fa75c9ff89c",
            "pin_names": {},
            "refdes": "J3",
            "tag": "f1d82cef-e909-4979-8ce5-24132f11d615",
            "value": ""
        },
        "d536c645-1691-4751-8b2f-8536ac802dca": {
            "connections": {
                "48af78e5-730e-44eb-977a-cf188e4fcb39/6a44037c-65e2-4876-9359-42890048841d": {
                    "net": "e3b02344-b8cb-431a-b6ea-ecfce60d92ca"
                },
                "48af78e5-730e-44eb-977a-cf188e4fcb39/dda0ec99-5d70-4fbe-a8db-897542e7554e": {
                    "net": "95be18a0-dee3-496e-83c0-36deb347d721"
                }
            },
            "custom_pin_names": {},
            "entity": "3ce770af-7be0-4f72-b2af-2c8010911aaf",
            "group": "00000000-0000-0000-0000-000000000000",
            "part": "12c5b98e-d055-441d-ad02-760adde0cc1a",
            "pin_names": {},
            "refdes": "R1",
            "tag": "e36f4305-e033-44a4-93bf-c0e964479081",
            "value": ""
        },
        "e5cca543-f252-4a2d-a94a-ae9cc667f231": {
            "connections": {
                "0de5f349-f360-44ed-8f13-d76a2a712b17/2fffaa24-00b6-4f8f-a6c0-f808a499d524": {
                    "net": "0e60599d-f7b0-4973-90da-f744e27249ec"
                }
            },
            "custom_pin_names": {},
            "entity": "267c6a2c-f1ef-4659-941a-b59a08de3c02",
            "group": "00000000-0000-0000-0000-000000000000",
            "nopopulate": true,
            "part": "5790d3da-aab7-46c6-8939-caabea11c85e",
            "pin_names": {},
            "refdes": "TP10",
            "tag": "98284582-7a5e-41e5-855a-16ee57459f88",
            "value": ""
        },
        "eedbf33b-8ce6-404b-a09f-c11d8eb17b64": {
            "connections": {
                "f620203c-26fd-4f34-b1c9-b2060bbaa0a7/0200c903-a89a-40e5-b562-bc24e607be5e": {
                    "net": "878c7012-8970-4614-a29b-fa631fe600eb"
                },
                "f620203c-26fd-4f34-b1c9-b2060bbaa0a7/14230910-7be5-4ed6-a4bb-c0a99fd6717b": {
                    "net": "d5bf7b1e-9114-46af-a8b7-977243e0e7a3"
                },
                "f620203c-26fd-4f34-b1c9-b2060bbaa0a7/15fd50b5-a4bd-4a20-b4c5-b6382aed77d2": {
                    "net": "47f1f834-8c5a-400f-95c5-16161d5b90fa"
                },
                "f620203c-26fd-4f34-b1c9-b2060bbaa0a7/1814436e-b8fb-4cb6-9b56-9cdc50321fcc": {
                    "net": "7fffef8b-8b2b-4ff0-9791-9c0e894d043e"
                },
                "f620203c-26fd-4f34-b1c9-b2060bbaa0a7/1da8ef85-b752-451d-919c-10e94df16315": {
                    "net": "b80d7fcf-8099-421f-bd20-15d562895f06"
                },
                "f620203c-26fd-4f34-b1c9-b2060bbaa0a7/22872dca-e357-4047-9790-01f99d8a22cf": {
                    "net": "06a85339-9e68-41e3-833c-99d128d1ff64"
                },
                "f620203c-26fd-4f34-b1c9-b2060bbaa0a7/2daa8968-85c0-4b16-a8ec-49f62b2dde27": {
                    "net": "c3e9c1c3-f800-4882-95b5-dd4721a9b248"
                },
                "f620203c-26fd-4f34-b1c9-b2060bbaa0a7/5922add0-2426-413b-9aff-8529b19425cc": {
                    "net": "92451f24-7c98-4050-8618-5e9f67972cc8"
                },
                "f620203c-26fd-4f34-b1c9-b2060bbaa0a7/5b2ca219-8c5b-411f-b6f6-6622cff35ade": {
                    "net": "9462cab2-bd58-4ccd-94b9-db90c134884d"
                },
                "f620203c-26fd-4f34-b1c9-b2060bbaa0a7/655789f3-9dd6-44da-98d4-2f3c59255b65": {
                    "net": "6e211fde-6f5f-4e1c-bde4-e433823fc827"
                },
                "f620203c-26fd-4f34-b1c9-b2060bbaa0a7/6ad0dbe9-0bb1-40db-8087-6054785895d7": {
                    "net": "36d9579f-dbb0-4373-86d9-0c5333bbe70b"
                },
                "f620203c-26fd-4f34-b1c9-b2060bbaa0a7/7485694d-b16f-4d3c-bef8-cd242fe559c7": {
                    "net": "2b83249d-91cc-4f6d-a566-4aab77b80ae6"
                },
                "f620203c-26fd-4f34-b1c9-b2060bbaa0a7/7bcd064f-45cd-4cee-a0f1-b229280ba772": {
                    "net": "43b6c40f-2e51-4895-90df-a411a055ac82"
                },
                "f620203c-26fd-4f34-b1c9-b2060bbaa0a7/c233a129-3669-4d84-b4a7-1b82c2b3cd56": {
                    "net": "61050356-9e1f-48a3-a8fb-a80991b38631"
                },
                "f620203c-26fd-4f34-b1c9-b2060bbaa0a7/ca25a111-7c28-4139-b741-7f7dd58299c5": {
                    "net": "8b58a57d-3fab-4e23-8d61-34ece09fce4f"
                },
                "f620203c-26fd-4f34-b1c9-b2060bbaa0a7/d2555bce-3b32-4d62-be34-4bb689a1623b": {
                    "net": "363d09fc-c9e7-49dc-92c5-33b1320cc97f"
                },
                "f620203c-26fd-4f34-b1c9-b2060bbaa0a7/e9bcbd17-e931-40ee-b287-08c413371f78": {
                    "net": "aba52786-4d3b-4547-b240-1c590376084e"
                },
                "f620203c-26fd-4f34-b1c9-b2060bbaa0a7/fd981379-cc85-4c87-bd2e-40cec5f5cfe9": {
                    "net": "e4468119-9293-4a66-a798-8308fc66c234"
                }
            },
            "custom_pin_names": {},
            "entity": "f0801048-fe3f-4927-8fba-15390d99a83e",
            "group": "00000000-0000-0000-0000-000000000000",
            "nopopulate": true,
            "part": "3a120dff-7bbb-499f-8319-06e552ac1709",
            "pin_names": {},
            "refdes": "J1",
            "tag": "4de924f5-1f78-417f-a202-df74b3bb16c0",
            "value": ""
        },
        "fffe9982-ee20-4ec6-9d37-8073fa47feea": {
            "connections": {
                "9bfcf213-2a7e-444e-8312-ce57209fc9ec/29995253-b4b1-4c7c-a049-b6db2713ca7c": {
                    "net": "e3b02344-b8cb-431a-b6ea-ecfce60d92ca"
                },
                "9bfcf213-2a7e-444e-8312-ce57209fc9ec/852f1fe6-06dc-4661-8a14-61a9a6ebb26a": {
                    "net": "7a4c2a10-ac15-42c4-b12a-0f1a2258859d"
                }
            },
            "custom_pin_names": {},
            "entity": "ca83a84f-6183-4088-84b6-5d79b2a119d4",
            "group": "00000000-0000-0000-0000-000000000000",
            "part": "106b54a5-c08e-425e-90ad-4f4bc7bc3d30",
            "pin_names": {},
            "refdes": "C8",
            "tag": "83ed4073-f8b0-4464-bac6-4a10fa48bc17",
            "value": ""
        }
    },
    "group_names": {},
    "name": "Top",
    "net_class_default": "3b21e25c-99bb-4dba-b4dd-15d10ef1e628",
    "net_classes": {
        "3b21e25c-99bb-4dba-b4dd-15d10ef1e628": {
            "name": "default"
        }
    },
    "nets": {
        "06a85339-9e68-41e3-833c-99d128d1ff64": {
            "is_port": false,
            "is_power": false,
            "name": "PB5",
            "net_class": "3b21e25c-99bb-4dba-b4dd-15d10ef1e628",
            "port_direction": "bidirectional",
            "power_symbol_name_visible": true,
            "power_symbol_style": "gnd"
        },
        "0e60599d-f7b0-4973-90da-f744e27249ec": {
            "is_port": false,
            "is_power": false,
            "name": "NRST",
            "net_class": "3b21e25c-99bb-4dba-b4dd-15d10ef1e628",
            "port_direction": "bidirectional",
            "power_symbol_name_visible": true,
            "power_symbol_style": "gnd"
        },
        "207bdb2c-09cc-4359-903c-6022ec7aeb9f": {
            "is_port": false,
            "is_power": false,
            "name": "",
            "net_class": "3b21e25c-99bb-4dba-b4dd-15d10ef1e628",
            "port_direction": "bidirectional",
            "power_symbol_name_visible": true,
            "power_symbol_style": "gnd"
        },
        "2835b632-5452-4d79-87f1-1e4214dfb0f1": {
            "is_port": false,
            "is_power": false,
            "name": "PA0",
            "net_class": "3b21e25c-99bb-4dba-b4dd-15d10ef1e628",
            "port_direction": "bidirectional",
            "power_symbol_name_visible": true,
            "power_symbol_style": "gnd"
        },
        "29b4af64-863a-48e2-bdae-aabf87103b47": {
            "diffpair": "873c1d1b-3fef-4a7e-936f-2ad89846d4be",
            "is_port": false,
            "is_power": false,
            "name": "USB_D+",
            "net_class": "3b21e25c-99bb-4dba-b4dd-15d10ef1e628",
            "port_direction": "bidirectional",
            "power_symbol_name_visible": true,
            "power_symbol_style": "gnd"
        },
        "2b83249d-91cc-4f6d-a566-4aab77b80ae6": {
            "is_port": false,
            "is_power": false,
            "name": "PB10",
            "net_class": "3b21e25c-99bb-4dba-b4dd-15d10ef1e628",
            "port_direction": "bidirectional",
            "power_symbol_name_visible": true,
            "power_symbol_style": "gnd"
        },
        "31bbe64c-3d11-420b-8de7-3b8bbe77b7db": {
            "is_port": false,
            "is_power": false,
            "name": "PB0",
            "net_class": "3b21e25c-99bb-4dba-b4dd-15d10ef1e628",
            "port_direction": "bidirectional",
            "power_symbol_name_visible": true,
            "power_symbol_style": "gnd"
        },
        "363d09fc-c9e7-49dc-92c5-33b1320cc97f": {
            "is_port": false,
            "is_power": false,
            "name": "PA7",
            "net_class": "3b21e25c-99bb-4dba-b4dd-15d10ef1e628",
            "port_direction": "bidirectional",
            "power_symbol_name_visible": true,
            "power_symbol_style": "gnd"
        },
        "36d9579f-dbb0-4373-86d9-0c5333bbe70b": {
            "is_port": false,
            "is_power": false,
            "name": "PB7",
            "net_class": "3b21e25c-99bb-4dba-b4dd-15d10ef1e628",
            "port_direction": "bidirectional",
            "power_symbol_name_visible": true,
            "power_symbol_style": "gnd"
        },
        "39a909c7-ff2d-4e0a-a333-03f3545c753a": {
            "is_port": false,
            "is_power": false,
            "name": "",
            "net_class": "3b21e25c-99bb-4dba-b4dd-15d10ef1e628",
            "port_direction": "bidirectional",
            "power_symbol_name_visible": true,
            "power_symbol_style": "gnd"
        },
        "413986ff-fa57-491a-9000-fb4544cb4ec9": {
            "is_port": false,
            "is_power": true,
            "name": "5V",
            "net_class": "3b21e25c-99bb-4dba-b4dd-15d10ef1e628",
            "port_direction": "bidirectional",
            "power_symbol_name_visible": true,
            "power_symbol_style": "dot"
        },
        "43b6c40f-2e51-4895-90df-a411a055ac82": {
            "is_port": false,
            "is_power": false,
            "name": "PB9",
            "net_class": "3b21e25c-99bb-4dba-b4dd-15d10ef1e628",
            "port_direction": "bidirectional",
            "power_symbol_name_visible": true,
            "power_symbol_style": "gnd"
        },
        "47f1f834-8c5a-400f-95c5-16161d5b90fa": {
            "is_port": false,
            "is_power": false,
            "name": "PB2",
            "net_class": "3b21e25c-99bb-4dba-b4dd-15d10ef1e628",
            "port_direction": "bidirectional",
            "power_symbol_name_visible": true,
            "power_symbol_style": "gnd"
        },
        "4f27dbd4-88ba-4f95-9516-08d4df58224c": {
            "is_port": false,
            "is_power": false,
            "name": "",
            "net_class": "3b21e25c-99bb-4dba-b4dd-15d10ef1e628",
            "port_direction": "bidirectional",
            "power_symbol_name_visible": true,
            "power_symbol_style": "gnd"
        },
        "57fcbb27-ce76-49f9-a230-71db6992d842": {
            "is_port": false,
            "is_power": false,
            "name": "",
            "net_class": "3b21e25c-99bb-4dba-b4dd-15d10ef1e628",
            "port_direction": "bidirectional",
            "power_symbol_name_visible": true,
            "power_symbol_style": "gnd"
        },
        "61050356-9e1f-48a3-a8fb-a80991b38631": {
            "is_port": false,
            "is_power": false,
            "name": "PB6",
            "net_class": "3b21e25c-99bb-4dba-b4dd-15d10ef1e628",
            "port_direction": "bidirectional",
            "power_symbol_name_visible": true,
            "power_symbol_style": "gnd"
        },
        "6e211fde-6f5f-4e1c-bde4-e433823fc827": {
            "is_port": false,
            "is_power": false,
            "name": "PA9",
            "net_class": "3b21e25c-99bb-4dba-b4dd-15d10ef1e628",
            "port_direction": "bidirectional",
            "power_symbol_name_visible": true,
            "power_symbol_style": "gnd"
        },
        "6fe40035-0149-4847-ac5c-00b7b2b4fb1f": {
            "is_port": false,
            "is_power": false,
            "name": "SWCLK",
            "net_class": "3b21e25c-99bb-4dba-b4dd-15d10ef1e628",
            "port_direction": "bidirectional",
            "power_symbol_name_visible": true,
            "power_symbol_style": "gnd"
        },
        "7a4c2a10-ac15-42c4-b12a-0f1a2258859d": {
            "is_port": false,
            "is_power": true,
            "name": "3V3",
            "net_class": "3b21e25c-99bb-4dba-b4dd-15d10ef1e628",
            "port_direction": "bidirectional",
            "power_symbol_name_visible": true,
            "power_symbol_style": "dot"
        },
        "7cb1b6a5-923f-4e95-9284-911278e5b16b": {
            "is_port": false,
            "is_power": false,
            "name": "",
            "net_class": "3b21e25c-99bb-4dba-b4dd-15d10ef1e628",
            "port_direction": "bidirectional",
            "power_symbol_name_visible": true,
            "power_symbol_style": "gnd"
        },
        "7fffef8b-8b2b-4ff0-9791-9c0e894d043e": {
            "is_port": false,
            "is_power": false,
            "name": "PA8",
            "net_class": "3b21e25c-99bb-4dba-b4dd-15d10ef1e628",
            "port_direction": "bidirectional",
            "power_symbol_name_visible": true,
            "power_symbol_style": "gnd"
        },
        "873c1d1b-3fef-4a7e-936f-2ad89846d4be": {
            "is_port": false,
            "is_power": false,
            "name": "USB_D-",
            "net_class": "3b21e25c-99bb-4dba-b4dd-15d10ef1e628",
            "port_direction": "bidirectional",
            "power_symbol_name_visible": true,
            "power_symbol_style": "gnd"
        },
        "878c7012-8970-4614-a29b-fa631fe600eb": {
            "is_port": false,
            "is_power": false,
            "name": "PA5",
            "net_class": "3b21e25c-99bb-4dba-b4dd-15d10ef1e628",
            "port_direction": "bidirectional",
            "power_symbol_name_visible": true,
            "power_symbol_style": "gnd"
        },
        "8b58a57d-3fab-4e23-8d61-34ece09fce4f": {
            "is_port": false,
            "is_power": false,
            "name": "PA10",
            "net_class": "3b21e25c-99bb-4dba-b4dd-15d10ef1e628",
            "port_direction": "bidirectional",
            "power_symbol_name_visible": true,
            "power_symbol_style": "gnd"
        },
        "8f745888-e2b9-4a67-ace1-5bcb310aebe2": {
            "is_port": false,
            "is_power": false,
            "name": "PB14",
            "net_class": "3b21e25c-99bb-4dba-b4dd-15d10ef1e628",
            "port_direction": "bidirectional",
            "power_symbol_name_visible": true,
            "power_symbol_style": "gnd"
        },
        "90d8318f-872b-409c-8f8e-471a217bcdd7": {
            "is_port": false,
            "is_power": false,
            "name": "",
            "net_class": "3b21e25c-99bb-4dba-b4dd-15d10ef1e628",
            "port_direction": "bidirectional",
            "power_symbol_name_visible": true,
            "power_symbol_style": "gnd"
        },
        "92451f24-7c98-4050-8618-5e9f67972cc8": {
            "is_port": false,
            "is_power": false,
            "name": "PA2",
            "net_class": "3b21e25c-99bb-4dba-b4dd-15d10ef1e628",
            "port_direction": "bidirectional",
            "power_symbol_name_visible": true,
            "power_symbol_style": "gnd"
        },
        "9462cab2-bd58-4ccd-94b9-db90c134884d": {
            "is_port": false,
            "is_power": false,
            "name": "PA6",
            "net_class": "3b21e25c-99bb-4dba-b4dd-15d10ef1e628",
            "port_direction": "bidirectional",
            "power_symbol_name_visible": true,
            "power_symbol_style": "gnd"
        },
        "95be18a0-dee3-496e-83c0-36deb347d721": {
            "is_port": false,
            "is_power": false,
            "name": "",
            "net_class": "3b21e25c-99bb-4dba-b4dd-15d10ef1e628",
            "port_direction": "bidirectional",
            "power_symbol_name_visible": true,
            "power_symbol_style": "gnd"
        },
        "a1246daa-8b13-4b31-b0fa-b9d1459d0a5b": {
            "is_port": false,
            "is_power": false,
            "name": "PB12",
            "net_class": "3b21e25c-99bb-4dba-b4dd-15d10ef1e628",
            "port_direction": "bidirectional",
            "power_symbol_name_visible": true,
            "power_symbol_style": "gnd"
        },
        "a767498c-fc0d-46bf-892a-acbe6faf31bd": {
            "is_port": false,
            "is_power": false,
            "name": "PB13",
            "net_class": "3b21e25c-99bb-4dba-b4dd-15d10ef1e628",
            "port_direction": "bidirectional",
            "power_symbol_name_visible": true,
            "power_symbol_style": "gnd"
        },
        "aba52786-4d3b-4547-b240-1c590376084e": {
            "is_port": false,
            "is_power": false,
            "name": "PB4",
            "net_class": "3b21e25c-99bb-4dba-b4dd-15d10ef1e628",
            "port_direction": "bidirectional",
            "power_symbol_name_visible": true,
            "power_symbol_style": "gnd"
        },
        "b80d7fcf-8099-421f-bd20-15d562895f06": {
            "is_port": false,
            "is_power": false,
            "name": "PA3",
            "net_class": "3b21e25c-99bb-4dba-b4dd-15d10ef1e628",
            "port_direction": "bidirectional",
            "power_symbol_name_visible": true,
            "power_symbol_style": "gnd"
        },
        "c3e9c1c3-f800-4882-95b5-dd4721a9b248": {
            "is_port": false,
            "is_power": false,
            "name": "PA4",
            "net_class": "3b21e25c-99bb-4dba-b4dd-15d10ef1e628",
            "port_direction": "bidirectional",
            "power_symbol_name_visible": true,
            "power_symbol_style": "gnd"
        },
        "c8af41b2-6e15-4d9b-8fae-62e7553477a0": {
            "is_port": false,
            "is_power": false,
            "name": "",
            "net_class": "3b21e25c-99bb-4dba-b4dd-15d10ef1e628",
            "port_direction": "bidirectional",
            "power_symbol_name_visible": true,
            "power_symbol_style": "gnd"
        },
        "d0d30266-f3a6-413d-978b-48f1d098a2d9": {
            "is_port": false,
            "is_power": false,
            "name": "PA15",
            "net_class": "3b21e25c-99bb-4dba-b4dd-15d10ef1e628",
            "port_direction": "bidirectional",
            "power_symbol_name_visible": true,
            "power_symbol_style": "gnd"
        },
        "d4dedf65-fd24-42b7-a621-61ad5b2c8bbc": {
            "is_port": false,
            "is_power": false,
            "name": "SWDAT",
            "net_class": "3b21e25c-99bb-4dba-b4dd-15d10ef1e628",
            "port_direction": "bidirectional",
            "power_symbol_name_visible": true,
            "power_symbol_style": "gnd"
        },
        "d5bf7b1e-9114-46af-a8b7-977243e0e7a3": {
            "is_port": false,
            "is_power": false,
            "name": "PB8",
            "net_class": "3b21e25c-99bb-4dba-b4dd-15d10ef1e628",
            "port_direction": "bidirectional",
            "power_symbol_name_visible": true,
            "power_symbol_style": "gnd"
        },
        "e3b02344-b8cb-431a-b6ea-ecfce60d92ca": {
            "is_port": false,
            "is_power": true,
            "name": "GND",
            "net_class": "3b21e25c-99bb-4dba-b4dd-15d10ef1e628",
            "port_direction": "bidirectional",
            "power_symbol_name_visible": true,
            "power_symbol_style": "gnd"
        },
        "e4468119-9293-4a66-a798-8308fc66c234": {
            "is_port": false,
            "is_power": false,
            "name": "PB3",
            "net_class": "3b21e25c-99bb-4dba-b4dd-15d10ef1e628",
            "port_direction": "bidirectional",
            "power_symbol_name_visible": true,
            "power_symbol_style": "gnd"
        },
        "ef6b0346-6cf5-4a3c-b8b6-5f2c7df7c700": {
            "is_port": false,
            "is_power": false,
            "name": "",
            "net_class": "3b21e25c-99bb-4dba-b4dd-15d10ef1e628",
            "port_direction": "bidirectional",
            "power_symbol_name_visible": true,
            "power_symbol_style": "gnd"
        },
        "fb8ca18a-d3f4-484a-aea8-1aff959d2337": {
            "diffpair": "ef6b0346-6cf5-4a3c-b8b6-5f2c7df7c700",
            "is_port": false,
            "is_power": false,
            "name": "",
            "net_class": "3b21e25c-99bb-4dba-b4dd-15d10ef1e628",
            "port_direction": "bidirectional",
            "power_symbol_name_visible": true,
            "power_symbol_style": "gnd"
        }
    },
    "project_meta": {
        "author": "unrelenting.technology",
        "date": "2021-12-09",
        "license": "Unlicense",
        "project_name": "ferrispark",
        "project_title": "FerriSpark",
        "rev": "0"
    },
    "tag_names": {
        "03033be7-1d32-407c-acc9-d260a56e6602": "4",
        "16275200-237e-4347-b64d-1e7d7262c3ef": "18",
        "1799daee-9c46-4157-b35f-0df2fd79669f": "6",
        "2dda52e3-53ee-4adf-8e1f-ca4225e9fe5c": "20",
        "32ad1595-0f64-435d-a452-e1c109e984f5": "2",
        "49f28e18-72e5-4c61-a29d-3d34d66bab3b": "16",
        "4b9086e1-cbd1-4b24-96fe-d0d6c49652e2": "14",
        "4de924f5-1f78-417f-a202-df74b3bb16c0": "17",
        "5e7ec020-0ea6-443c-b1a2-7579ab3bdfa6": "7",
        "62941ae6-79c7-4515-a284-adf487f24e8a": "25",
        "6501b979-bdae-4ebf-9dc5-42eed810a5b6": "0",
        "6e22c883-e8f2-4ce1-9414-0d4a9451374f": "15",
        "7306a73f-7cbb-482e-9a0a-e304f60a16b0": "12",
        "83ed4073-f8b0-4464-bac6-4a10fa48bc17": "8",
        "84597312-c740-471f-a1d9-cc09278cf943": "21",
        "8897772a-ed90-4733-a3b9-65d0727f5be7": "11",
        "933eec26-1038-40a0-8b9e-bc1c25a96a91": "1",
        "94b18127-69db-4a2c-900d-a5599c95d1d3": "6",
        "98284582-7a5e-41e5-855a-16ee57459f88": "27",
        "b27e089f-571b-45d6-bb71-0461d42c6ed8": "26",
        "bd475dd7-c9b7-4ada-8bae-7fabe518b85e": "10",
        "be6e1e62-9e5e-496d-882d-633c0e147d6c": "9",
        "d1762042-ab07-46a2-afb6-9a4d78a0f21e": "28",
        "d7af4f01-79bc-4925-b231-309b6a868af9": "13",
        "e36f4305-e033-44a4-93bf-c0e964479081": "3",
        "e7ba13d4-0578-48ca-9c70-97ea2be54a9d": "22",
        "f1d82cef-e909-4979-8ce5-24132f11d615": "19"
    },
    "uuid": "546c927e-3172-4ee2-863d-52b64ccef51c"
}